Rk,Pos,Name,Age,G,PA,AB,R,H,2B,3B,HR,RBI,SB,CS,BB,SO,BA,OBP,SLG,OPS,OPS+,TB,GDP,HBP,SH,SF,IBB
1,C,J.P. Arencibia,26,102,372,347,45,81,16,0,18,56,1,0,18,108,0.233,0.275,0.435,0.71,90,151,4,3,1,3,1
2,1B,Adam Lind*,28,93,353,321,28,82,14,2,11,45,0,0,29,61,0.255,0.314,0.414,0.729,97,133,10,0,0,3,1
3,2B,Kelly Johnson*,30,142,581,507,61,114,19,2,16,55,14,2,62,159,0.225,0.313,0.365,0.678,85,185,8,5,2,4,4
4,SS,Yunel Escobar,29,145,608,558,58,141,22,1,9,51,5,1,35,70,0.253,0.3,0.344,0.644,75,192,21,4,7,4,1
5,3B,Brett Lawrie,22,125,536,494,73,135,26,3,11,48,13,8,33,86,0.273,0.324,0.405,0.729,98,200,9,5,2,2,0
6,LF,Rajai Davis,31,142,487,447,64,115,24,3,8,43,46,13,29,102,0.257,0.309,0.378,0.687,86,169,8,6,1,4,3
7,CF,Colby Rasmus*,25,151,625,565,75,126,21,5,23,75,4,3,47,149,0.223,0.289,0.4,0.689,86,226,7,7,2,4,5
8,RF,Jose Bautista,31,92,399,332,64,80,14,0,27,65,5,2,59,63,0.241,0.358,0.527,0.886,138,175,11,4,0,4,2
9,DH,Edwin Encarnacion,29,151,644,542,93,152,24,0,42,110,13,3,84,94,0.28,0.384,0.557,0.941,153,302,6,11,0,7,12
10,C,Jeff Mathis,29,71,227,211,25,46,13,0,8,27,1,0,9,68,0.218,0.249,0.393,0.642,72,83,2,0,6,1,0
11,OF,Anthony Gose*,21,56,189,166,25,37,7,3,1,11,15,3,17,59,0.223,0.303,0.319,0.622,70,53,1,2,4,0,0
12,IF,Omar Vizquel#,45,60,163,153,13,36,5,1,0,7,3,2,7,17,0.235,0.265,0.281,0.546,50,43,5,0,1,2,0
13,LF,Eric Thames*,25,46,160,148,17,36,7,1,3,11,0,1,9,40,0.243,0.288,0.365,0.652,77,54,7,1,0,2,0
14,RF,Moises Sierra,23,49,157,147,14,33,4,0,6,15,1,0,8,44,0.224,0.274,0.374,0.648,75,55,3,2,0,0,0
15,1B,David Cooper*,25,45,145,140,16,42,11,0,4,11,0,1,4,22,0.3,0.324,0.464,0.788,112,65,1,1,0,0,0
16,IF,Adeiny Hechavarria,23,41,137,126,10,32,8,0,2,15,0,0,4,32,0.254,0.28,0.365,0.645,75,46,2,1,5,1,0
17,UT,Yan Gomes,24,43,111,98,9,20,4,0,4,13,0,0,6,32,0.204,0.264,0.367,0.631,70,36,3,3,1,3,0
18,UT,Mike McCoy,31,32,56,52,10,9,1,0,1,7,2,1,4,6,0.173,0.232,0.25,0.482,32,13,1,0,0,0,0
19,DH,Ben Francisco,30,27,54,50,5,12,5,1,0,2,0,1,4,10,0.24,0.296,0.38,0.676,83,19,0,0,0,0,0
20,LF,Travis Snider*,24,10,40,36,6,9,2,0,3,8,0,0,3,14,0.25,0.3,0.556,0.856,126,20,0,0,0,1,0
21,C,Yorvit Torrealba,33,10,30,28,3,6,0,0,1,2,0,0,2,7,0.214,0.267,0.321,0.588,60,9,0,0,0,0,0
22,P,Ricky Romero,27,32,5,5,1,1,0,0,0,0,0,0,0,2,0.2,0.2,0.2,0.4,10,1,0,0,0,0,0
23,P,Jesse Chavez,28,9,3,2,0,0,0,0,0,0,0,0,0,2,0,0,0,0,-100,0,0,0,1,0,0
24,P,Drew Hutchison*,21,11,2,2,0,0,0,0,0,0,0,0,0,0,0,0,0,0,-100,0,0,0,0,0,0
25,P,Brett Cecil,25,21,2,2,0,0,0,0,0,0,0,0,0,2,0,0,0,0,-100,0,0,0,0,0,0
26,P,Carlos Villanueva,28,38,2,2,1,1,0,0,0,0,0,0,0,0,0.5,0.5,0.5,1,175,1,0,0,0,0,0
27,P,Kyle Drabek,24,13,2,2,0,0,0,0,0,0,0,0,0,1,0,0,0,0,-100,0,0,0,0,0,0
28,P,Joel Carreno,25,11,1,1,0,0,0,0,0,0,0,0,0,0,0,0,0,0,-100,0,0,0,0,0,0
29,P,Aaron Laffey*,27,22,1,1,0,0,0,0,0,0,0,0,0,0,0,0,0,0,-100,0,0,0,0,0,0
30,P,Henderson Alvarez,22,31,1,1,0,0,0,0,0,0,0,0,0,1,0,0,0,0,-100,0,0,0,0,0,0
31,P,Aaron Loup*,24,33,1,1,0,0,0,0,0,0,0,0,0,0,0,0,0,0,-100,0,0,0,0,0,0
32,P,Sergio Santos,28,6,0,0,0,0,0,0,0,0,0,0,0,0,,,,,,0,0,0,0,0,0
33,P,Robert Coello,27,6,0,0,0,0,0,0,0,0,0,0,0,0,,,,,,0,0,0,0,0,0
34,P,Scott Richmond,32,3,0,0,0,0,0,0,0,0,0,0,0,0,,,,,,0,0,0,0,0,0
35,P,David Pauley,29,5,0,0,0,0,0,0,0,0,0,0,0,0,,,,,,0,0,0,0,0,0
36,P,Brandon Lyon,32,30,0,0,0,0,0,0,0,0,0,0,0,0,,,,,,0,0,0,0,0,0
37,P,David Carpenter,26,3,0,0,0,0,0,0,0,0,0,0,0,0,,,,,,0,0,0,0,0,0
38,P,Brad Lincoln*,27,24,0,0,0,0,0,0,0,0,0,0,0,0,,,,,,0,0,0,0,0,0
39,P,Brandon Morrow,27,21,0,0,0,0,0,0,0,0,0,0,0,0,,,,,,0,0,0,0,0,0
40,P,Francisco Cordero,37,41,0,0,0,0,0,0,0,0,0,0,0,0,,,,,,0,0,0,0,0,0
41,P,Drew Carpenter,27,6,0,0,0,0,0,0,0,0,0,0,0,0,,,,,,0,0,0,0,0,0
42,P,Jason Frasor,34,50,0,0,0,0,0,0,0,0,0,0,0,0,,,,,,0,0,0,0,0,0
43,P,Sam Dyson,24,2,0,0,0,0,0,0,0,0,0,0,0,0,,,,,,0,0,0,0,0,0
44,P,Casey Janssen,30,62,0,0,0,0,0,0,0,0,0,0,0,0,,,,,,0,0,0,0,0,0
45,P,Ryota Igarashi,33,2,0,0,0,0,0,0,0,0,0,0,0,0,,,,,,0,0,0,0,0,0
46,P,Darren Oliver,41,62,0,0,0,0,0,0,0,0,0,0,0,0,,,,,,0,0,0,0,0,0
47,P,Steve Delabar,28,27,0,0,0,0,0,0,0,0,0,0,0,0,,,,,,0,0,0,0,0,0
48,P,Chad Beck,27,14,0,0,0,0,0,0,0,0,0,0,0,0,,,,,,0,0,0,0,0,0
49,P,Luis Perez*,27,35,0,0,0,0,0,0,0,0,0,0,0,0,,,,,,0,0,0,0,0,0
50,P,Evan Crawford,25,10,0,0,0,0,0,0,0,0,0,0,0,0,,,,,,0,0,0,0,0,0
51,P,Chad Jenkins,24,13,0,0,0,0,0,0,0,0,0,0,0,0,,,,,,0,0,0,0,0,0
52,P,Shawn Hill,31,1,0,0,0,0,0,0,0,0,0,0,0,0,,,,,,0,0,0,0,0,0
53,P,J.A. Happ*,29,10,0,0,0,0,0,0,0,0,0,0,0,0,,,,,,0,0,0,0,0,0
54,P,Bobby Korecky,32,1,0,0,0,0,0,0,0,0,0,0,0,0,,,,,,0,0,0,0,0,0
,,Team Totals,27.7,162,6094,5487,716,1346,247,22,198,677,123,41,473,1251,0.245,0.309,0.407,0.716,94,2231,109,55,33,45,29
,,Rank in 14 AL teams,,,,12,7,11,12,10,5,,5,10,9,10,11,13,8,9,,9,,7,,5,
,,Non-Pitcher Totals,27.7,162,6074,5468,714,1344,247,22,198,677,123,41,473,1243,0.246,0.31,0.408,0.718,94,2229,109,55,32,45,29
,,Pitcher Totals,25.7,162,20,19,2,2,0,0,0,0,0,0,0,8,0.105,0.105,0.105,0.211,-42,2,0,0,1,0,0
