Rk,Pos,Name,Age,G,PA,AB,R,H,2B,3B,HR,RBI,SB,CS,BB,SO,BA,OBP,SLG,OPS,OPS+,TB,GDP,HBP,SH,SF,IBB
1,C,Kurt Suzuki,28,75,278,262,19,57,15,0,1,18,1,0,9,53,0.218,0.25,0.286,0.536,51,75,3,3,2,2,0
2,1B,Chris Carter,25,67,260,218,38,52,12,0,16,39,0,0,39,83,0.239,0.35,0.514,0.864,139,112,4,0,0,3,1
3,2B,Jemile Weeks#,25,118,511,444,54,98,15,8,2,20,16,5,50,70,0.221,0.305,0.304,0.609,73,135,5,5,9,3,0
4,SS,Cliff Pennington#,28,125,462,418,50,90,18,2,6,28,15,6,35,90,0.215,0.278,0.311,0.589,66,130,1,2,5,2,0
5,3B,Brandon Inge,35,74,311,283,31,64,13,0,11,52,0,1,24,85,0.226,0.286,0.389,0.675,88,110,8,1,0,3,1
6,LF,Yoenis Cespedes,26,129,540,487,70,142,25,5,23,82,16,4,43,102,0.292,0.356,0.505,0.861,139,246,9,7,0,3,5
7,CF,Coco Crisp#,32,120,508,455,68,118,25,7,11,46,39,4,45,64,0.259,0.325,0.418,0.742,107,190,9,0,6,2,0
8,RF,Josh Reddick*,25,156,673,611,85,148,29,5,32,85,11,1,55,151,0.242,0.305,0.463,0.768,112,283,15,2,1,4,8
9,DH,Jonny Gomes,31,99,333,279,46,73,10,0,18,47,3,1,44,104,0.262,0.377,0.491,0.868,142,137,2,8,1,1,2
10,UT,Seth Smith*,29,125,441,383,55,92,23,2,14,52,2,2,50,98,0.24,0.333,0.42,0.754,111,161,4,5,0,3,7
11,1B,Brandon Moss*,28,84,296,265,48,77,18,0,21,52,1,1,26,90,0.291,0.358,0.596,0.954,162,158,5,3,0,2,2
12,3B,Josh Donaldson,26,75,294,274,34,66,16,0,9,33,4,1,14,61,0.241,0.289,0.398,0.687,91,109,6,5,0,1,0
13,C,Derek Norris,23,60,232,209,19,42,8,1,7,34,5,1,21,66,0.201,0.276,0.349,0.625,75,73,6,1,0,1,1
14,SS,Stephen Drew*,29,39,172,152,21,38,5,0,5,16,1,1,18,41,0.25,0.326,0.382,0.707,98,58,1,0,0,2,1
15,UT,Kila Ka'aihue*,28,39,139,128,13,30,9,0,4,14,1,0,10,28,0.234,0.295,0.398,0.693,93,51,6,1,0,0,0
16,1B,Daric Barton*,26,46,136,113,8,23,7,0,1,6,1,0,22,32,0.204,0.338,0.292,0.63,80,33,1,1,0,0,0
17,OF,Collin Cowgill,26,38,116,104,10,28,2,0,1,9,3,4,11,27,0.269,0.336,0.317,0.654,86,33,3,0,0,1,0
18,MI,Adam Rosales,29,42,111,99,12,22,5,0,2,8,0,0,11,24,0.222,0.297,0.333,0.631,77,33,4,0,0,1,1
19,IF,Eric Sogard*,26,37,108,102,8,17,3,1,2,7,2,0,5,17,0.167,0.206,0.275,0.48,34,28,1,0,1,0,0
20,C,George Kottaras*,29,27,93,85,10,18,2,1,6,19,0,0,8,24,0.212,0.28,0.471,0.75,106,40,2,0,0,0,0
21,SS,Brandon Hicks,26,22,70,64,8,11,5,0,3,7,1,0,6,31,0.172,0.243,0.391,0.633,74,25,1,0,0,0,0
22,UT,Anthony Recker,28,13,37,31,3,4,1,0,0,0,0,0,4,13,0.129,0.25,0.161,0.411,20,5,0,1,1,0,0
23,OF,Michael Taylor,26,6,21,21,2,3,1,0,0,0,0,0,0,10,0.143,0.143,0.19,0.333,-7,4,1,0,0,0,0
24,3B,Luke Hughes,27,4,13,13,0,1,0,0,0,0,0,0,0,6,0.077,0.077,0.077,0.154,-56,1,0,0,0,0,0
25,1B,Brandon Allen*,26,3,7,7,0,0,0,0,0,0,0,0,0,5,0,0,0,0,-100,0,0,0,0,0,0
26,P,Jarrod Parker,23,29,7,6,0,0,0,0,0,0,0,0,0,4,0,0,0,0,-100,0,0,0,1,0,0
27,P,Tommy Milone*,25,31,5,5,1,1,0,0,0,2,0,0,0,1,0.2,0.2,0.2,0.4,13,1,0,0,0,0,0
28,P,Bartolo Colon,39,24,4,4,0,0,0,0,0,0,0,0,0,3,0,0,0,0,-100,0,0,0,0,0,0
29,P,Travis Blackley*,29,24,2,2,0,0,0,0,0,0,0,0,0,2,0,0,0,0,-100,0,0,0,0,0,0
30,P,Tyson Ross,25,18,2,2,0,0,0,0,0,0,0,0,0,1,0,0,0,0,-100,0,0,0,0,0,0
31,P,Grant Balfour,34,75,1,1,0,0,0,0,0,0,0,0,0,1,0,0,0,0,-100,0,0,0,0,0,0
32,P,Pat Neshek#,31,24,0,0,0,0,0,0,0,0,0,0,0,0,,,,,,0,0,0,0,0,0
33,P,Andrew Carignan,25,11,0,0,0,0,0,0,0,0,0,0,0,0,,,,,,0,0,0,0,0,0
34,P,Fautino De Los Santos,26,6,0,0,0,0,0,0,0,0,0,0,0,0,,,,,,0,0,0,0,0,0
35,P,Jordan Norberto*,25,39,0,0,0,0,0,0,0,0,0,0,0,0,,,,,,0,0,0,0,0,0
36,P,Rich Thompson,27,1,0,0,0,0,0,0,0,0,0,0,0,0,,,,,,0,0,0,0,0,0
37,P,Graham Godfrey,27,5,0,0,0,0,0,0,0,0,0,0,0,0,,,,,,0,0,0,0,0,0
38,P,Sean Doolittle*,25,44,0,0,0,0,0,0,0,0,0,0,0,0,,,,,,0,0,0,0,0,0
39,P,Brian Fuentes*,36,26,0,0,0,0,0,0,0,0,0,0,0,0,,,,,,0,0,0,0,0,0
40,P,Dan Straily,23,7,0,0,0,0,0,0,0,0,0,0,0,0,,,,,,0,0,0,0,0,0
41,P,A.J. Griffin,24,15,0,0,0,0,0,0,0,0,0,0,0,0,,,,,,0,0,0,0,0,0
42,P,Jerry Blevins*,28,63,0,0,0,0,0,0,0,0,0,0,0,0,,,,,,0,0,0,0,0,0
43,P,Jeremy Accardo,30,1,0,0,0,0,0,0,0,0,0,0,0,0,,,,,,0,0,0,0,0,0
44,P,Pedro Figueroa*,26,19,0,0,0,0,0,0,0,0,0,0,0,0,,,,,,0,0,0,0,0,0
45,P,Brandon McCarthy,28,18,0,0,0,0,0,0,0,0,0,0,0,0,,,,,,0,0,0,0,0,0
46,P,Brett Anderson*,24,6,0,0,0,0,0,0,0,0,0,0,0,0,,,,,,0,0,0,0,0,0
47,P,Jesse Chavez,28,4,0,0,0,0,0,0,0,0,0,0,0,0,,,,,,0,0,0,0,0,0
48,P,Ryan Cook,25,71,0,0,0,0,0,0,0,0,0,0,0,0,,,,,,0,0,0,0,0,0
49,P,Evan Scribner,26,30,0,0,0,0,0,0,0,0,0,0,0,0,,,,,,0,0,0,0,0,0
50,P,Jim Miller,30,33,0,0,0,0,0,0,0,0,0,0,0,0,,,,,,0,0,0,0,0,0
