Rk,Pos,Name,Age,G,PA,AB,R,H,2B,3B,HR,RBI,SB,CS,BB,SO,BA,OBP,SLG,OPS,OPS+,TB,GDP,HBP,SH,SF,IBB
1,C,Joe Mauer*,29,147,641,545,81,174,31,4,10,85,8,4,90,88,0.319,0.416,0.446,0.861,140,243,23,2,1,3,10
2,1B,Justin Morneau*,31,134,570,505,63,135,26,2,19,77,1,0,49,102,0.267,0.333,0.44,0.773,112,222,19,6,0,10,8
3,2B,Alexi Casilla#,27,106,326,299,33,72,17,2,1,30,21,1,16,52,0.241,0.282,0.321,0.603,67,96,6,3,3,5,0
4,SS,Brian Dozier,25,84,340,316,33,74,11,1,6,33,9,2,16,58,0.234,0.271,0.332,0.603,67,105,10,1,4,3,0
5,3B,Trevor Plouffe,26,119,465,422,56,99,19,1,24,55,1,3,37,92,0.235,0.301,0.455,0.756,106,192,9,4,0,2,0
6,LF,Josh Willingham,33,145,615,519,85,135,30,1,35,110,3,2,76,141,0.26,0.366,0.524,0.89,143,272,15,14,0,6,4
7,CF,Denard Span*,28,128,568,516,71,146,38,4,4,41,17,6,47,62,0.283,0.342,0.395,0.738,104,204,10,0,4,1,0
8,RF,Ben Revere*,24,124,553,511,70,150,13,6,0,32,40,9,29,54,0.294,0.333,0.342,0.675,89,175,8,3,6,4,0
9,DH,Ryan Doumit#,31,134,528,484,56,133,34,1,18,75,0,0,29,98,0.275,0.32,0.461,0.781,114,223,17,7,0,8,5
10,IF,Jamey Carroll,38,138,537,470,65,126,18,1,1,40,9,5,52,65,0.268,0.343,0.317,0.66,86,149,9,4,7,4,0
11,1B,Chris Parmelee*,24,64,210,192,18,44,10,2,5,19,0,0,13,52,0.229,0.29,0.38,0.671,84,73,4,4,0,1,1
12,RF,Darin Mastroianni,26,77,186,163,22,41,3,2,3,17,21,3,18,45,0.252,0.328,0.35,0.678,89,57,4,1,3,1,0
13,SS,Pedro Florimon#,25,43,150,137,16,30,5,2,1,10,3,1,10,30,0.219,0.272,0.307,0.579,61,42,3,0,3,0,0
14,3B,Danny Valencia,27,34,132,126,13,25,6,1,2,17,0,1,3,32,0.198,0.212,0.31,0.522,43,39,5,0,0,3,0
15,C,Drew Butera,28,42,122,111,7,22,6,0,1,5,0,0,9,26,0.198,0.27,0.279,0.55,53,31,3,2,0,0,0
16,UT,Matt Carson,30,26,69,66,3,15,1,0,0,4,0,0,2,21,0.227,0.246,0.242,0.489,37,16,0,0,0,1,0
17,IF,Eduardo Escobar#,23,14,49,44,4,10,0,0,0,6,1,0,2,8,0.227,0.271,0.227,0.498,41,10,0,1,1,1,0
18,UT,Erik Komatsu*,24,15,37,32,2,7,0,0,0,1,0,0,4,3,0.219,0.297,0.219,0.516,47,7,2,0,0,1,0
19,OF,Clete Thomas*,28,12,29,28,2,4,1,0,1,4,0,0,0,16,0.143,0.172,0.286,0.458,24,8,0,1,0,0,0
20,UT,Chris Herrmann*,24,7,19,18,0,1,0,0,0,1,0,0,1,5,0.056,0.105,0.056,0.161,-53,1,0,0,0,0,0
21,UT,Sean Burroughs*,31,10,18,17,0,2,1,0,0,1,0,0,1,3,0.118,0.167,0.176,0.343,-4,3,1,0,0,0,0
22,2B,Tsuyoshi Nishioka#,27,3,14,12,0,0,0,0,0,1,0,0,1,1,0,0.071,0,0.071,-78,0,0,0,0,1,0
23,IF,Luke Hughes,27,4,11,10,0,2,0,0,0,2,1,0,0,4,0.2,0.182,0.2,0.382,6,2,0,0,0,1,0
24,P,Scott Diamond*,25,27,8,7,1,1,0,0,0,0,0,0,0,4,0.143,0.143,0.143,0.286,-20,1,0,0,1,0,0
25,P,Francisco Liriano*,28,22,3,3,0,0,0,0,0,0,0,0,0,2,0,0,0,0,-100,0,0,0,0,0,0
26,P,Liam Hendriks,23,17,2,2,0,0,0,0,0,0,0,0,0,1,0,0,0,0,-100,0,0,0,0,0,0
27,P,Nick Blackburn,30,19,2,2,0,0,0,0,0,0,0,0,0,1,0,0,0,0,-100,0,0,0,0,0,0
28,P,Carl Pavano,36,11,2,2,0,0,0,0,0,0,0,0,0,1,0,0,0,0,-100,0,1,0,0,0,0
29,P,Anthony Swarzak,26,44,2,2,0,0,0,0,0,0,0,0,0,1,0,0,0,0,-100,0,0,0,0,0,0
30,P,Brian Duensing*,29,55,1,1,0,0,0,0,0,0,0,0,0,1,0,0,0,0,-100,0,0,0,0,0,0
31,P,Jeff Gray,30,49,0,0,0,0,0,0,0,0,0,0,0,0,,,,,,0,0,0,0,0,0
32,P,Sam Deduno,28,15,0,0,0,0,0,0,0,0,0,0,0,0,,,,,,0,0,0,0,0,0
33,P,Luis Perdomo,28,15,0,0,0,0,0,0,0,0,0,0,0,0,,,,,,0,0,0,0,0,0
34,P,Cole De Vries,27,17,0,0,0,0,0,0,0,0,0,0,0,0,,,,,,0,0,0,0,0,0
35,P,Glen Perkins*,29,70,0,0,0,0,0,0,0,0,0,0,0,0,,,,,,0,0,0,0,0,0
36,P,Matt Maloney*,28,9,0,0,0,0,0,0,0,0,0,0,0,0,,,,,,0,0,0,0,0,0
37,P,Tyler Robertson*,24,40,0,0,0,0,0,0,0,0,0,0,0,0,,,,,,0,0,0,0,0,0
38,P,Alex Burnett,24,67,0,0,0,0,0,0,0,0,0,0,0,0,,,,,,0,0,0,0,0,0
39,P,Jeff Manship,27,12,0,0,0,0,0,0,0,0,0,0,0,0,,,,,,0,0,0,0,0,0
40,P,Lester Oliveros,24,1,0,0,0,0,0,0,0,0,0,0,0,0,,,,,,0,0,0,0,0,0
41,P,Kyle Waldrop,26,17,0,0,0,0,0,0,0,0,0,0,0,0,,,,,,0,0,0,0,0,0
42,P,P.J. Walters,27,12,0,0,0,0,0,0,0,0,0,0,0,0,,,,,,0,0,0,0,0,0
43,P,Jason Marquis*,33,7,0,0,0,0,0,0,0,0,0,0,0,0,,,,,,0,0,0,0,0,0
44,P,Jared Burton,31,64,0,0,0,0,0,0,0,0,0,0,0,0,,,,,,0,0,0,0,0,0
45,P,Matt Capps,28,30,0,0,0,0,0,0,0,0,0,0,0,0,,,,,,0,0,0,0,0,0
46,P,Esmerling Vasquez,28,6,0,0,0,0,0,0,0,0,0,0,0,0,,,,,,0,0,0,0,0,0
47,P,Casey Fien,28,35,0,0,0,0,0,0,0,0,0,0,0,0,,,,,,0,0,0,0,0,0
