Rk,Pos,Name,Age,G,PA,AB,R,H,2B,3B,HR,RBI,SB,CS,BB,SO,BA,OBP,SLG,OPS,OPS+,TB,GDP,HBP,SH,SF,IBB
1,C,Salvador Perez,23,138,526,496,48,145,25,3,13,79,0,0,21,63,0.292,0.323,0.433,0.757,105,215,13,4,0,5,2
2,1B,Eric Hosmer*,23,159,680,623,86,188,34,3,17,79,11,4,51,100,0.302,0.353,0.448,0.801,118,279,15,1,1,4,4
3,2B,Chris Getz*,29,78,237,209,29,46,6,1,1,18,16,3,20,24,0.22,0.288,0.273,0.561,55,57,9,0,8,0,3
4,SS,Alcides Escobar,26,158,642,607,57,142,20,4,4,52,22,0,19,84,0.234,0.259,0.3,0.559,53,182,12,3,9,4,1
5,3B,Mike Moustakas*,24,136,514,472,42,110,26,0,12,42,2,4,32,83,0.233,0.287,0.364,0.651,77,172,13,5,1,4,1
6,LF,Alex Gordon*,29,156,700,633,90,168,27,6,20,81,11,3,52,141,0.265,0.327,0.422,0.749,103,267,4,9,0,6,7
7,CF,Lorenzo Cain,27,115,442,399,54,100,21,3,4,46,14,6,33,90,0.251,0.31,0.348,0.658,80,139,10,4,0,6,2
8,RF,David Lough*,27,96,335,315,35,90,17,4,5,33,5,2,10,52,0.286,0.311,0.413,0.724,96,130,3,3,4,3,0
9,DH,Billy Butler,27,162,668,582,62,168,27,0,15,82,0,0,79,102,0.289,0.374,0.412,0.787,116,240,28,3,0,4,11
10,CF,Jarrod Dyson*,28,87,239,213,30,55,9,4,2,17,34,6,21,45,0.258,0.326,0.366,0.692,90,78,4,1,3,1,1
11,RF,Jeff Francoeur,29,59,193,183,19,38,8,2,3,13,2,0,8,49,0.208,0.249,0.322,0.571,55,59,5,2,0,0,2
12,2B,Emilio Bonifacio#,28,42,179,158,21,45,6,2,0,11,16,2,17,37,0.285,0.352,0.348,0.7,93,55,1,0,3,1,0
13,2B,Elliot Johnson#,29,79,173,162,19,29,2,1,2,9,14,0,8,49,0.179,0.218,0.241,0.458,26,39,2,0,3,0,1
14,IF,Miguel Tejada,39,53,167,156,15,45,5,0,3,20,1,0,6,25,0.288,0.317,0.378,0.695,90,59,6,1,3,1,1
15,C,George Kottaras*,30,46,126,100,13,18,4,0,5,12,1,0,24,42,0.18,0.349,0.37,0.719,98,37,2,2,0,0,2
16,RF,Justin Maxwell,29,35,111,97,14,26,6,1,5,17,2,1,11,35,0.268,0.351,0.505,0.857,131,49,3,2,0,1,0
17,UT,Johnny Giavotella,25,14,48,41,4,9,3,0,0,4,0,0,5,4,0.22,0.333,0.293,0.626,74,12,0,2,0,0,0
18,IF,Jamey Carroll,39,14,43,36,5,4,3,0,0,2,0,1,4,4,0.111,0.19,0.194,0.385,6,7,1,0,1,2,0
19,C,Brett Hayes,29,5,18,18,2,5,3,0,1,2,0,0,0,3,0.278,0.278,0.611,0.889,134,11,0,0,0,0,0
20,UT,Pedro Ciriaco,27,5,11,11,0,2,1,0,0,0,1,0,0,1,0.182,0.182,0.273,0.455,22,3,0,0,0,0,0
21,C,Adam Moore,29,5,11,10,1,3,1,0,0,0,1,0,1,2,0.3,0.364,0.4,0.764,109,4,0,0,0,0,0
22,3B,Irving Falu#,30,1,4,4,0,1,0,0,0,0,0,0,0,0,0.25,0.25,0.25,0.5,38,1,0,0,0,0,0
23,1B,Carlos Pena*,35,4,3,3,0,0,0,0,0,0,0,0,0,3,0,0,0,0,-100,0,0,0,0,0,0
24,P,Jeremy Guthrie,34,33,5,4,0,1,0,0,0,0,0,0,0,2,0.25,0.25,0.25,0.5,38,1,0,0,0,0,0
25,P,Luis Mendoza,29,22,5,5,0,2,0,0,0,1,0,0,0,2,0.4,0.4,0.4,0.8,121,2,0,0,0,0,0
26,P,Ervin Santana,30,32,4,4,0,1,0,0,0,0,0,0,0,2,0.25,0.25,0.25,0.5,38,1,0,0,0,0,0
27,P,Wade Davis,27,31,4,3,0,0,0,0,0,0,0,0,0,2,0,0,0,0,-100,0,0,0,1,0,0
28,P,James Shields,31,34,3,3,1,1,0,0,0,0,0,0,0,1,0.333,0.333,0.333,0.667,84,1,0,0,0,0,0
29,P,Bruce Chen*,36,34,2,2,1,1,0,0,0,0,0,0,0,1,0.5,0.5,0.5,1,176,1,0,0,0,0,0
30,P,Greg Holland,27,68,0,0,0,0,0,0,0,0,0,0,0,0,,,,,,0,0,0,0,0,0
31,P,Louis Coleman,27,27,0,0,0,0,0,0,0,0,0,0,0,0,,,,,,0,0,0,0,0,0
32,P,Everett Teaford*,29,1,0,0,0,0,0,0,0,0,0,0,0,0,,,,,,0,0,0,0,0,0
33,P,Danny Duffy*,24,5,0,0,0,0,0,0,0,0,0,0,0,0,,,,,,0,0,0,0,0,0
34,P,Yordano Ventura,22,3,0,0,0,0,0,0,0,0,0,0,0,0,,,,,,0,0,0,0,0,0
35,P,Will Smith,23,19,0,0,0,0,0,0,0,0,0,0,0,0,,,,,,0,0,0,0,0,0
36,P,Kelvin Herrera,23,59,0,0,0,0,0,0,0,0,0,0,0,0,,,,,,0,0,0,0,0,0
37,P,Francisley Bueno*,32,7,0,0,0,0,0,0,0,0,0,0,0,0,,,,,,0,0,0,0,0,0
38,P,Donnie Joseph*,25,6,0,0,0,0,0,0,0,0,0,0,0,0,,,,,,0,0,0,0,0,0
39,P,J.C. Gutierrez,29,25,0,0,0,0,0,0,0,0,0,0,0,0,,,,,,0,0,0,0,0,0
40,P,Aaron Crow,26,57,0,0,0,0,0,0,0,0,0,0,0,0,,,,,,0,0,0,0,0,0
41,P,Chris Dwyer,25,2,0,0,0,0,0,0,0,0,0,0,0,0,,,,,,0,0,0,0,0,0
42,P,Luke Hochevar,29,58,0,0,0,0,0,0,0,0,0,0,0,0,,,,,,0,0,0,0,0,0
43,P,Tim Collins*,23,66,0,0,0,0,0,0,0,0,0,0,0,0,,,,,,0,0,0,0,0,0
